…
```r
#maximium 
max(activity_summary2$mean)
```

```
## [1] 206.1698
```

```r
activity_summary2[order(-activity_summary2$mean), ]
```

```
## # A tibble: 288 x 2
##    interval  mean
##       <int> <dbl>
##  1      835  206.
##  2      840  196.
##  3      850  183.
##  4      845  180.
##  5      830  177.
##  6      820  171.
##  7      855  167.
##  8      815  158.
##  9      825  155.
## 10      900  143.
## # ... with 278 more rows
```
…
